{
    "title": "จัดการร้านค้า",
    "createShop": [
        {
            "shopName": "QA_Automated_",
            "prototype": "เสื้อผ้า",
            "mobileNo": "0897762493",
            "email": "test@test.com",
            "fb": "https://fb.com/fbname",
            "ig": "igname",
            "line": "linename",
            "address": "1/123 มบ.พรีเลจจิโอ",
            "province": "จันทบุรี",
            "district": "ท่าใหม่",
            "subDistrict": "พลอยแหวน",
            "postcode": "22120",
            "paymentType": "TRANSFER"
        }
    ],
    "editShop": [
        {
            "shopName": "Edit_QA_Automated_",
            "prototype": "สุขภาพ, ความงาม",
            "mobileNo": "0825462816",
            "email": "edittest@test.com",
            "fb": "https://fb.com/editfbname",
            "ig": "editigname",
            "line": "editlinename",
            "address": "1/123 มบ.พรีเลจจิโอแก้ไข",
            "province": "มุกดาหาร",
            "district": "นิคมคำสร้อย",
            "subDistrict": "ร่มเกล้า",
            "postcode": "49130",
            "paymentType": "COD"
        }
    ]
}